<svg width="13" height="14" viewBox="0 0 13 14" fill="none" xmlns="http://www.w3.org/2000/svg">
<path d="M6.49995 7.54163C6.7991 7.54163 7.04162 7.29911 7.04162 6.99996C7.04162 6.70081 6.7991 6.45829 6.49995 6.45829C6.20079 6.45829 5.95828 6.70081 5.95828 6.99996C5.95828 7.29911 6.20079 7.54163 6.49995 7.54163Z" stroke="#344054" stroke-width="1.08333" stroke-linecap="round" stroke-linejoin="round"/>
<path d="M6.49995 3.74996C6.7991 3.74996 7.04162 3.50745 7.04162 3.20829C7.04162 2.90914 6.7991 2.66663 6.49995 2.66663C6.20079 2.66663 5.95828 2.90914 5.95828 3.20829C5.95828 3.50745 6.20079 3.74996 6.49995 3.74996Z" stroke="#344054" stroke-width="1.08333" stroke-linecap="round" stroke-linejoin="round"/>
<path d="M6.49995 11.3333C6.7991 11.3333 7.04162 11.0908 7.04162 10.7916C7.04162 10.4925 6.7991 10.25 6.49995 10.25C6.20079 10.25 5.95828 10.4925 5.95828 10.7916C5.95828 11.0908 6.20079 11.3333 6.49995 11.3333Z" stroke="#344054" stroke-width="1.08333" stroke-linecap="round" stroke-linejoin="round"/>
</svg>
